<svg width="62" height="60" viewBox="0 0 62 60" fill="none" xmlns="http://www.w3.org/2000/svg">
<path fill-rule="evenodd" clip-rule="evenodd" d="M30.984 0C14.448 0 1 13.454 1 29.992C1 46.528 14.45 59.976 30.984 59.976C47.518 59.976 60.98 46.526 60.98 29.992C60.98 13.454 47.52 0 30.984 0ZM30.984 57.824C15.636 57.824 3.15198 45.344 3.15198 29.992C3.15198 14.64 15.636 2.15198 30.984 2.15198C46.336 2.15198 58.828 14.64 58.828 29.992C58.828 45.344 46.336 57.824 30.984 57.824ZM44.504 27.152L25.73 16.73C23.172 15.308 20.722 16.816 20.722 19.68V40.298C20.722 42.404 21.932 43.822 23.73 43.822C24.378 43.822 25.054 43.63 25.734 43.252L44.504 32.826C45.746 32.138 46.462 31.104 46.462 29.994C46.462 28.884 45.746 27.848 44.504 27.152ZM43.458 30.942L24.692 41.368C24.336 41.564 24.008 41.668 23.732 41.668C22.99 41.668 22.876 40.812 22.876 40.296V19.68C22.876 19.168 22.99 18.312 23.732 18.312C24.01 18.312 24.338 18.418 24.692 18.612L43.458 29.034C43.982 29.326 44.31 29.694 44.31 29.992C44.308 30.286 43.98 30.652 43.458 30.942Z" fill="#F0F7F3"/>
</svg>
