<svg width="36" height="36" viewBox="0 0 36 36" fill="none" xmlns="http://www.w3.org/2000/svg">
<path d="M22.7389 16.9594C21.6139 18.7172 19.7436 20.5734 17.4654 20.2289C15.2154 19.8914 13.6193 17.782 12.6631 15.8906C12.5225 15.6164 12.192 15.5883 11.9389 15.7008C11.742 15.7922 11.51 15.6094 11.3693 15.4758C11.0811 15.2086 10.9193 14.8289 10.8068 14.4633C10.6732 14.0203 10.5115 12.832 11.1373 12.6422C11.4397 12.5508 11.5451 12.2836 11.5029 11.9953C11.5029 11.9953 11.5029 11.9953 11.5029 11.9883C11.4607 11.7 11.1022 11.5523 10.8561 11.6226C10.5537 11.707 10.4482 11.9883 10.4904 12.2695C10.4904 12.2695 10.4904 12.2695 10.4904 12.2765C10.61 12.0586 10.7365 11.8406 10.8561 11.6297C9.53418 12.0375 9.49199 13.7601 9.82246 14.857C10.16 15.9609 11.2147 17.2054 12.4732 16.6148C12.2342 16.5515 11.9951 16.4883 11.749 16.425C12.8529 18.6117 14.7303 20.8828 17.2897 21.2625C20.0248 21.6703 22.2748 19.6383 23.6459 17.4867C24.0186 16.9172 23.1045 16.3898 22.7389 16.9594ZM15.6373 26.1211C17.149 26.6976 18.8225 26.6625 20.3553 26.1844C21.0022 25.9875 20.7279 24.9679 20.074 25.1648C18.7029 25.5867 17.2686 25.6148 15.9186 25.1015C15.2857 24.8625 15.0115 25.882 15.6373 26.1211Z" fill="url(#paint0_linear_43_3938)"/>
<path d="M29.3412 35.0789C29.3412 33.3703 29.3412 31.6547 29.3412 29.9461C29.3412 29.243 29.3412 28.5398 29.3412 27.8367C29.3412 26.332 28.5678 24.9609 27.3092 24.1524C26.5357 23.6531 25.6146 23.5406 24.7357 23.3649C23.9764 23.2102 23.224 23.0625 22.4646 22.9078C22.5701 22.9852 22.6756 23.0695 22.781 23.1469C22.556 22.8164 22.3521 22.4508 22.085 22.1484C21.6982 21.7125 20.8615 21.6563 20.6646 22.2961C20.4959 22.8516 20.3342 23.4141 20.1654 23.9695C19.5396 26.0719 18.9139 28.1742 18.2881 30.2766C18.0209 31.1695 17.7537 32.0625 17.4865 32.9625C17.824 32.9625 18.1615 32.9625 18.5061 32.9625C17.5217 29.6367 16.5373 26.318 15.5529 22.9922C15.4756 22.7391 15.4053 22.4859 15.3279 22.2258C15.2084 21.811 14.7514 21.7828 14.3928 21.8391C14.1326 21.8813 13.9428 22.1133 13.7951 22.3102C13.5982 22.5844 13.4084 22.8656 13.2115 23.1399C13.317 23.0625 13.4225 22.9781 13.5279 22.9008C12.6842 23.0695 11.8475 23.2383 11.0037 23.407C10.6943 23.4703 10.3779 23.5336 10.0686 23.5969C9.28105 23.7516 8.56387 24.1524 7.98027 24.6938C7.05918 25.5445 6.65137 26.7609 6.65137 27.9914C6.65137 28.8422 6.65137 29.6859 6.65137 30.5367C6.65137 32.0484 6.65137 33.5602 6.65137 35.0719C6.65137 35.7539 7.70605 35.7539 7.70605 35.0719C7.70605 33.3633 7.70605 31.6477 7.70605 29.9391C7.70605 29.2359 7.70605 28.5328 7.70605 27.8297C7.70605 26.4516 8.56387 25.2 9.87168 24.7359C10.2443 24.6024 10.6592 24.5461 11.0529 24.4688C11.6365 24.3492 12.2271 24.2367 12.8107 24.1172C13.1412 24.0539 13.4787 23.9836 13.8092 23.9203C14.0693 23.8711 14.2592 23.4844 14.3998 23.2875C14.4842 23.168 14.5686 23.0414 14.6529 22.9219C14.674 22.8867 14.7021 22.8516 14.7232 22.8234C14.7936 22.725 14.6389 22.8727 14.674 22.8797C14.5545 22.7602 14.4279 22.6336 14.3084 22.5141C15.2928 25.8399 16.2771 29.1586 17.2615 32.4844C17.3389 32.7375 17.4092 32.9906 17.4865 33.2508C17.6342 33.757 18.3514 33.75 18.5061 33.2508C19.4975 29.925 20.4889 26.6063 21.4732 23.2805C21.5506 23.0274 21.6279 22.7742 21.6982 22.5141C21.5787 22.6336 21.4521 22.7602 21.3326 22.8797C21.3185 22.8867 21.206 22.718 21.3256 22.8867C21.3889 22.9852 21.4592 23.0836 21.5225 23.175C21.635 23.3438 21.7545 23.5125 21.867 23.6742C22.0779 23.9836 22.549 23.9906 22.8865 24.0539C23.7935 24.2367 24.7076 24.4195 25.6146 24.6024C27.035 24.8836 28.1389 26.0438 28.2725 27.4992C28.3287 28.118 28.2865 28.7578 28.2865 29.3766C28.2865 31.275 28.2865 33.1664 28.2865 35.0648C28.2865 35.7609 29.3412 35.7609 29.3412 35.0789Z" fill="url(#paint1_linear_43_3938)"/>
<path d="M14.3863 28.8492C14.3652 29.5594 13.8238 30.1008 13.1136 30.1219C12.4035 30.143 11.8621 29.5312 11.841 28.8492C11.8199 28.1391 12.4316 27.5976 13.1136 27.5766C13.8308 27.5625 14.3722 28.1742 14.3863 28.8492C14.4074 29.5312 15.4621 29.5312 15.441 28.8492C15.4058 27.5625 14.4074 26.557 13.1136 26.5219C11.8269 26.4867 10.8214 27.6117 10.7863 28.8492C10.7511 30.1359 11.8761 31.1414 13.1136 31.1766C14.4003 31.2117 15.4058 30.0867 15.441 28.8492C15.4621 28.1672 14.4074 28.1742 14.3863 28.8492ZM22.6128 32.1398C22.1066 32.1187 22.0855 31.6758 22.0855 31.2891C22.0855 30.7617 22.0855 30.2344 22.0855 29.707C22.0855 29.3695 22.0855 29.032 22.0855 28.6945C22.0855 27.9773 22.5425 27.3234 23.2105 27.0703C23.9277 26.8031 24.673 27.0492 25.1652 27.6047C25.4957 27.9773 25.5519 28.4555 25.5519 28.9266C25.5519 29.8195 25.5519 30.7125 25.5519 31.5984C25.5519 31.9008 25.3199 32.1187 25.0246 32.1328C24.3496 32.1609 24.3425 33.2156 25.0246 33.1875C25.8824 33.1453 26.6066 32.4914 26.6066 31.6055C26.6066 31.2469 26.6066 30.8883 26.6066 30.5297C26.6066 29.5031 26.7472 28.3711 26.2972 27.4219C25.5449 25.8328 23.3722 25.4601 22.0574 26.543C21.4105 27.0773 21.0519 27.8578 21.0378 28.6945C21.0308 29.032 21.0378 29.3695 21.0378 29.707C21.0378 30.3117 21.0378 30.9094 21.0378 31.5141C21.0378 32.4422 21.6847 33.1523 22.6199 33.1945C23.2949 33.2226 23.2949 32.168 22.6128 32.1398ZM15.441 8.55701C15.673 8.62029 15.905 8.7117 16.13 8.79607C16.1863 8.81717 16.2355 8.83826 16.2917 8.85936C16.4113 8.90857 16.2074 8.8242 16.3691 8.89451C16.5097 8.95779 16.6503 9.02107 16.791 9.09139C17.1074 9.24607 17.4238 9.41482 17.7261 9.59764C19.3433 10.5539 20.7074 11.9109 21.6074 13.6195C22.7464 15.7851 22.9082 18.3234 22.5425 20.707C22.4582 21.2344 22.9996 21.5789 23.4214 21.2203C24.3636 20.4258 25.116 19.3078 25.6714 18.218C26.9652 15.6867 27.1269 12.7969 26.2972 10.0969C25.3339 6.97498 23.3089 4.00076 20.1519 2.8406C17.9582 2.03201 15.3144 2.24998 13.3175 3.48045C12.3402 4.0781 11.4332 5.02732 11.2433 6.20154C11.3207 6.09607 11.405 5.9906 11.4824 5.88513C10.9832 6.22264 10.6808 6.7992 10.4628 7.3406C9.85112 8.88748 10.1042 10.7226 10.4839 12.2906C10.5472 12.5648 10.8636 12.7406 11.1308 12.6562C13.2402 12.0164 15.005 10.2023 16.0316 8.32498C16.3621 7.72732 15.448 7.19295 15.1175 7.79061C14.4425 9.02107 13.5214 10.0828 12.3542 10.8633C11.9957 11.1023 11.623 11.3133 11.2292 11.489C11.2011 11.5031 11.18 11.5101 11.1519 11.5242C11.0253 11.5805 11.2574 11.482 11.1449 11.5312C11.0886 11.5523 11.0394 11.5734 10.9832 11.5945C10.941 11.6086 10.8917 11.6297 10.8496 11.6437C11.0675 11.7633 11.2855 11.8898 11.4964 12.0094C11.166 10.6242 10.955 9.09842 11.4402 7.72029C11.4964 7.57264 11.5316 7.48123 11.6441 7.28435C11.6792 7.21404 11.7214 7.15076 11.7636 7.08748C11.7847 7.05935 11.8058 7.03123 11.8199 7.0031C11.8761 6.92576 11.7425 7.10154 11.8339 6.98904C11.8902 6.91873 11.9535 6.85545 12.0167 6.79217C12.1433 6.67264 11.9394 6.84139 12.0097 6.79217C12.2558 6.62342 12.2558 6.37029 12.3402 6.11014C12.3542 6.06795 12.3683 6.01873 12.3894 5.97654C12.4457 5.82889 12.3472 6.06795 12.4105 5.92732C12.4597 5.82185 12.5089 5.72342 12.5722 5.62498C12.7761 5.28045 13.0433 5.00623 13.3949 4.71092C14.1121 4.12029 15.1246 3.73357 16.0949 3.54373C18.605 3.05857 21.1433 4.04295 22.8519 5.92029C24.0472 7.24217 24.8839 8.97889 25.3761 10.6804C25.7769 12.0797 25.8964 13.5633 25.6574 15.0047C25.4042 16.4812 24.7996 17.8523 23.9347 19.0687C23.6957 19.3992 23.4214 19.7437 23.0769 20.1023C22.9503 20.2359 22.8238 20.3625 22.6832 20.482C22.9785 20.6508 23.2738 20.8265 23.5621 20.9953C23.998 18.1687 23.766 15.2578 22.3246 12.7406C21.3472 11.032 19.8707 9.64686 18.1832 8.64842C17.4167 8.19842 16.58 7.78357 15.7152 7.55154C15.0683 7.3617 14.7871 8.3742 15.441 8.55701Z" fill="url(#paint2_linear_43_3938)"/>
<path d="M24.349 26.4304C24.349 25.5234 24.349 24.6234 24.349 23.7164C24.349 23.4703 24.1873 23.2805 23.9623 23.2101C24.0396 23.2523 24.117 23.3015 24.1943 23.3437C23.7162 22.8656 22.9639 23.6109 23.449 24.089C23.5193 24.1594 23.5896 24.1945 23.6811 24.2226C23.5545 24.0539 23.4209 23.8851 23.2943 23.7164C23.2943 24.6234 23.2943 25.5234 23.2943 26.4304C23.2943 27.1125 24.349 27.1125 24.349 26.4304ZM15.2646 22.3523C15.2646 21.3961 15.2646 20.4398 15.2646 19.4765C15.2646 18.7945 14.21 18.7945 14.21 19.4765C14.21 20.4328 14.21 21.389 14.21 22.3523C14.21 23.0344 15.2646 23.0344 15.2646 22.3523ZM21.7896 22.3594C21.7896 21.4031 21.7896 20.4398 21.7896 19.4836C21.7896 18.8016 20.735 18.8016 20.735 19.4836C20.735 20.4398 20.735 21.4031 20.735 22.3594C20.735 23.0344 21.7896 23.0344 21.7896 22.3594ZM13.6475 27.0562C13.6475 25.882 13.6475 24.7078 13.6475 23.5336C13.6475 22.8515 12.5928 22.8515 12.5928 23.5336C12.5928 24.7078 12.5928 25.882 12.5928 27.0562C12.5928 27.7312 13.6475 27.7312 13.6475 27.0562Z" fill="url(#paint3_linear_43_3938)"/>
<path d="M13.7246 22.4438C13.5207 22.6477 13.5207 22.9852 13.7246 23.1891C13.9285 23.393 14.266 23.393 14.4699 23.1891C14.6738 22.9852 14.6738 22.6477 14.4699 22.4438C14.266 22.2399 13.9285 22.2399 13.7246 22.4438ZM28.8137 34.5516C25.9308 34.5516 23.048 34.5516 20.1582 34.5516C16.1855 34.5516 12.2129 34.5516 8.24023 34.5516C7.88867 34.5516 7.53008 34.5516 7.17852 34.5516C6.49648 34.5516 6.49648 35.6062 7.17852 35.6062C10.0613 35.6062 12.9441 35.6062 15.834 35.6062C19.8066 35.6062 23.7793 35.6062 27.7519 35.6062C28.1035 35.6062 28.4621 35.6062 28.8137 35.6062C29.4957 35.6062 29.4957 34.5516 28.8137 34.5516Z" fill="url(#paint4_linear_43_3938)"/>
<defs>
<linearGradient id="paint0_linear_43_3938" x1="9.64941" y1="19.0768" x2="23.7335" y2="19.0768" gradientUnits="userSpaceOnUse">
<stop stop-color="#006B54"/>
<stop offset="1" stop-color="#18AD89"/>
</linearGradient>
<linearGradient id="paint1_linear_43_3938" x1="6.65137" y1="28.703" x2="29.3412" y2="28.703" gradientUnits="userSpaceOnUse">
<stop stop-color="#006B54"/>
<stop offset="1" stop-color="#18AD89"/>
</linearGradient>
<linearGradient id="paint2_linear_43_3938" x1="10.0947" y1="17.7785" x2="26.8081" y2="17.7785" gradientUnits="userSpaceOnUse">
<stop stop-color="#006B54"/>
<stop offset="1" stop-color="#18AD89"/>
</linearGradient>
<linearGradient id="paint3_linear_43_3938" x1="12.5928" y1="23.2637" x2="24.349" y2="23.2637" gradientUnits="userSpaceOnUse">
<stop stop-color="#006B54"/>
<stop offset="1" stop-color="#18AD89"/>
</linearGradient>
<linearGradient id="paint4_linear_43_3938" x1="6.66699" y1="28.9485" x2="29.3252" y2="28.9485" gradientUnits="userSpaceOnUse">
<stop stop-color="#006B54"/>
<stop offset="1" stop-color="#18AD89"/>
</linearGradient>
</defs>
</svg>
