<svg width="181" height="76" viewBox="0 0 181 76" fill="none" xmlns="http://www.w3.org/2000/svg">
<path fill-rule="evenodd" clip-rule="evenodd" d="M146.334 36.9892V3.16911C146.334 2.59936 146.547 2.09169 146.974 1.64489C147.4 1.1981 147.919 0.975307 148.528 0.975307H151.879C152.448 0.975307 152.936 1.16766 153.342 1.55359C153.748 1.93951 153.992 2.41674 154.073 2.98528V3.22999C154.155 3.51365 154.264 3.56234 154.438 3.4126C161.721 -2.87054 180.953 0.905911 180.953 15.7488V36.9892C180.953 37.5992 180.74 38.1178 180.314 38.5439C179.886 38.97 179.369 39.1831 178.759 39.1831H174.738C174.128 39.1831 173.61 38.97 173.183 38.5439C172.757 38.1178 172.544 37.5992 172.544 36.9892V17.3351C172.544 12.0709 168.473 8.08874 162.241 8.33101C157.848 8.50267 154.743 12.4946 154.743 17.3351V36.9892C154.743 37.5992 154.53 38.1178 154.104 38.5439C153.678 38.97 153.159 39.1831 152.549 39.1831H148.528C147.919 39.1831 147.4 38.97 146.974 38.5439C146.547 38.1178 146.334 37.5992 146.334 36.9892Z" fill="#FEFEFE"/>
<path fill-rule="evenodd" clip-rule="evenodd" d="M37.5567 1.94958C37.2173 1.94958 36.9525 2.06113 36.7082 2.31731L36.7072 2.31832C36.4374 2.60041 36.337 2.87236 36.337 3.16921V36.9893C36.337 37.3446 36.45 37.6137 36.6911 37.8542L36.6921 37.8552C36.933 38.0961 37.2028 38.209 37.5567 38.209H41.6399C41.9947 38.209 42.2634 38.0963 42.5045 37.8552L42.5055 37.8542C42.7466 37.6137 42.8595 37.3446 42.8595 36.9893V28.398C42.8595 28.1598 42.9214 27.82 43.1927 27.5385C43.1937 27.5376 43.1946 27.5366 43.1955 27.5356L47.4194 23.1335C47.4569 23.0705 47.5036 23.0038 47.5617 22.9391C47.7018 22.7833 47.9697 22.5781 48.3584 22.5781C48.722 22.5781 48.9732 22.7598 49.0947 22.8706C49.1963 22.9633 49.2718 23.0639 49.326 23.1473L60.5706 37.7362C60.5873 37.7579 60.6031 37.7802 60.6179 37.8032C60.777 38.05 61.0099 38.209 61.5059 38.209H65.8326C66.0903 38.209 66.2877 38.1427 66.4599 38.0214C66.6891 37.86 66.845 37.6793 66.9508 37.4791L66.9527 37.4755C67.0403 37.3113 67.0792 37.13 67.0571 36.9039C67.0363 36.7035 66.9564 36.4881 66.7729 36.2517L52.9062 18.8564C52.7664 18.6997 52.6096 18.4449 52.6096 18.099C52.6096 17.7191 52.7988 17.4495 52.944 17.3002L65.5404 4.03395C65.7496 3.7956 65.8433 3.5755 65.8722 3.36893L65.873 3.36392C65.9105 3.10541 65.8779 2.89668 65.7957 2.71103C65.7048 2.50748 65.5593 2.31924 65.3319 2.1447C65.1769 2.02647 64.9755 1.94958 64.6749 1.94958H60.8351C60.5804 1.94958 60.2916 2.04732 59.9513 2.38358L44.9116 18.5193C44.9038 18.5276 44.8959 18.5358 44.8878 18.5439C44.7449 18.6868 44.5426 18.8245 44.2786 18.8826C44.0126 18.9411 43.7663 18.9006 43.5677 18.8222C43.4188 18.7636 43.2231 18.6577 43.061 18.4623C42.8841 18.2492 42.7987 17.991 42.7987 17.7333V3.16921C42.7987 2.87351 42.6979 2.60082 42.4275 2.31731C42.1832 2.06113 41.9184 1.94958 41.579 1.94958H37.5567ZM35.2987 0.972156C35.9065 0.335079 36.6788 0.0012207 37.5567 0.0012207H41.579C42.4571 0.0012207 43.2296 0.335255 43.8375 0.972658C44.4193 1.58275 44.747 2.32539 44.747 3.16921V15.8382L58.5386 1.04164C58.5464 1.03329 58.5543 1.02508 58.5624 1.01701C59.1911 0.388302 59.9555 0.0012207 60.8351 0.0012207H64.6749C65.3478 0.0012207 65.979 0.187106 66.5154 0.596985L66.5167 0.597992C66.9776 0.951386 67.3406 1.39084 67.576 1.91959L67.5766 1.92096C67.8178 2.46488 67.8875 3.04645 67.8014 3.64147C67.7111 4.28306 67.4202 4.85245 66.9864 5.33987C66.9795 5.34769 66.9724 5.3554 66.9652 5.36299L54.8298 18.1437L68.3 35.0417C68.3022 35.0444 68.3043 35.0471 68.3064 35.0498C68.6901 35.5418 68.9334 36.0989 68.9956 36.7078L68.9959 36.7109C69.0538 37.2968 68.9517 37.867 68.6725 38.3911C68.4131 38.8815 68.0434 39.2893 67.5818 39.6144C67.0625 39.9801 66.4685 40.1573 65.8326 40.1573H61.5059C60.473 40.1573 59.5797 39.7604 59.0048 38.8962L48.3094 25.02L44.8079 28.6693V36.9893C44.8079 37.8536 44.495 38.6215 43.8819 39.2331C43.8817 39.2333 43.8815 39.2336 43.8812 39.2338L43.1933 38.544L43.8822 39.2328C43.8821 39.2329 43.882 39.233 43.8819 39.2331C43.2709 39.844 42.5048 40.1573 41.6399 40.1573H37.5567C36.6933 40.1573 35.9261 39.8443 35.3149 39.2333C35.315 39.2335 35.3152 39.2337 35.3154 39.2338L36.0032 38.544L35.3144 39.2328C35.3145 39.233 35.3147 39.2332 35.3149 39.2333C34.7017 38.6217 34.3887 37.8538 34.3887 36.9893V3.16921C34.3887 2.32677 34.7142 1.58356 35.2987 0.972156ZM35.2987 0.972156C35.2986 0.972323 35.2984 0.972491 35.2982 0.972658L36.0032 1.64499L35.2992 0.971654C35.299 0.971822 35.2989 0.971989 35.2987 0.972156Z" fill="#FEFEFE"/>
<path fill-rule="evenodd" clip-rule="evenodd" d="M71.6708 2.31201C71.4015 2.59491 71.3038 2.86635 71.3038 3.14851V6.29677C71.3038 6.57894 71.4015 6.85039 71.6708 7.13328C71.9164 7.38386 72.1831 7.4957 72.5235 7.4957H90.8044C90.9179 7.4957 91.0866 7.50399 91.2634 7.55936C91.4275 7.61073 91.7841 7.7646 91.9525 8.1823C92.1191 8.59584 91.9727 8.95111 91.8945 9.09857C91.8191 9.24054 91.7233 9.3534 91.6466 9.43328L71.6179 32.8598C71.6015 32.8791 71.5843 32.8977 71.5663 32.9156C71.4033 33.0787 71.3038 33.2889 71.3038 33.628V36.9893C71.3038 37.3446 71.4168 37.6137 71.6579 37.8542L71.6589 37.8552C71.9 38.0963 72.1687 38.209 72.5235 38.209H99.7634C100.117 38.209 100.387 38.0961 100.628 37.8552C100.87 37.6134 100.983 37.3433 100.983 36.9893V33.8825C100.983 33.5285 100.87 33.2584 100.628 33.0167C100.387 32.7758 100.117 32.6629 99.7634 32.6629H81.603C81.4751 32.6629 81.2944 32.6508 81.1052 32.5835C80.9064 32.5129 80.6322 32.3544 80.4711 32.0289C80.3139 31.7113 80.3504 31.407 80.402 31.2212C80.4529 31.0381 80.5392 30.8881 80.6092 30.7828C80.6316 30.7492 80.656 30.7169 80.6824 30.6863L100.78 7.36134C100.879 7.23469 100.961 7.09528 101.027 6.93769C101.076 6.8205 101.105 6.68443 101.105 6.52079V3.16921C101.105 2.8881 101.006 2.62052 100.719 2.33384C100.434 2.0482 100.166 1.94958 99.8839 1.94958H72.5235C72.1831 1.94958 71.9164 2.06142 71.6708 2.31201ZM70.2725 0.955202C70.8781 0.333992 71.6455 0.0012207 72.5235 0.0012207H99.8839C100.741 0.0012207 101.489 0.348181 102.097 0.956137C102.704 1.56304 103.053 2.31081 103.053 3.16921V6.52079C103.053 6.92399 102.98 7.31598 102.827 7.68553L102.826 7.68776C102.689 8.01412 102.512 8.31609 102.29 8.59258C102.283 8.60145 102.275 8.61019 102.268 8.6188L83.23 30.7145H99.7634C100.627 30.7145 101.394 31.0277 102.006 31.639C102.616 32.2495 102.931 33.0166 102.931 33.8825V36.9893C102.931 37.8552 102.616 38.6224 102.006 39.2328C101.394 39.8441 100.627 40.1573 99.7634 40.1573H72.5235C71.6586 40.1573 70.8927 39.8441 70.2817 39.2333C69.6685 38.6217 69.3555 37.8538 69.3555 36.9893V33.628C69.3555 32.8439 69.6121 32.1306 70.1593 31.5677L89.074 9.44406H72.5235C71.6455 9.44406 70.8781 9.11131 70.2725 8.49009L70.266 8.48337C69.6831 7.87391 69.3555 7.13107 69.3555 6.29677V3.14851C69.3555 2.3142 69.6831 1.57137 70.266 0.96192L70.2725 0.955202ZM90.8119 9.44427C90.8118 9.44433 90.8096 9.44432 90.8055 9.44406C90.8099 9.44408 90.812 9.44421 90.8119 9.44427ZM90.2399 8.08514C90.2425 8.08217 90.244 8.08063 90.2442 8.08055C90.2443 8.08047 90.243 8.08199 90.2399 8.08514ZM81.603 30.7145C81.5997 30.7145 81.6006 30.7143 81.6054 30.7145H81.603Z" fill="#FEFEFE"/>
<path fill-rule="evenodd" clip-rule="evenodd" d="M3.16799 1.94836C2.82863 1.94836 2.56385 2.05991 2.31953 2.31609L2.31949 2.31614C2.04847 2.60028 1.94836 2.8728 1.94836 3.16799V36.9893C1.94836 37.3437 2.06076 37.6125 2.3034 37.8551C2.54432 38.0961 2.81411 38.209 3.16799 38.209H30.4091C30.7028 38.209 30.9574 38.1105 31.2126 37.8554C31.4543 37.6127 31.5667 37.3436 31.5667 36.9893V33.8813C31.5667 33.5274 31.4538 33.2576 31.2129 33.0167C30.9565 32.7603 30.7015 32.6616 30.4091 32.6616H9.62766C9.39839 32.6616 9.04599 32.6043 8.75764 32.317C8.46862 32.0291 8.40999 31.6757 8.40999 31.444V23.2787C8.40999 23.0469 8.46856 22.6952 8.75506 22.4076C9.04222 22.1193 9.39468 22.0598 9.62766 22.0598H27.1793C27.5332 22.0598 27.803 21.9469 28.0439 21.706L28.0449 21.705C28.286 21.4645 28.399 21.1954 28.399 20.8402V17.7321C28.399 17.3784 28.2862 17.1091 28.0449 16.8685L28.0429 16.8665C27.8023 16.6252 27.533 16.5124 27.1793 16.5124H9.62766C9.39839 16.5124 9.04599 16.4551 8.75764 16.1678C8.46862 15.8799 8.40999 15.5265 8.40999 15.2948V8.65249C8.40999 8.35237 8.52547 7.98729 8.86116 7.73584C9.1443 7.52374 9.45248 7.4957 9.62766 7.4957H30.4091C30.687 7.4957 30.9396 7.39867 31.2005 7.13377C31.4692 6.84926 31.5667 6.57731 31.5667 6.29555V3.14729C31.5667 2.86506 31.4689 2.59331 31.2004 2.31024C30.9406 2.04525 30.6884 1.94836 30.4091 1.94836H3.16799ZM0.909609 0.971391C1.51748 0.334018 2.28994 0 3.16799 0H30.4091C31.2656 0 32.0082 0.34776 32.5993 0.953981C32.6017 0.956541 32.6042 0.959116 32.6067 0.961703C33.1876 1.57082 33.515 2.3132 33.515 3.14729V6.29555C33.515 7.12978 33.1875 7.87167 32.6076 8.48141C32.6045 8.48465 32.6014 8.48787 32.5983 8.49106C32.0086 9.09424 31.2667 9.44406 30.4091 9.44406H10.3584V14.5641H27.1793C28.0424 14.5641 28.81 14.877 29.4213 15.4895C30.0342 16.1009 30.3473 16.8687 30.3473 17.7321V20.8402C30.3473 21.7048 30.0341 22.4729 29.4206 23.0846C28.8095 23.6953 28.0424 24.0081 27.1793 24.0081H10.3584V30.7133H30.4091C31.2539 30.7133 31.9948 31.0432 32.5906 31.639C33.2018 32.2502 33.515 33.0177 33.515 33.8813V36.9893C33.515 37.8546 33.2015 38.6201 32.5915 39.2319L32.5906 39.2328C31.9937 39.8297 31.2524 40.1573 30.4091 40.1573H3.16799C2.30444 40.1573 1.53698 39.8441 0.925699 39.2328C0.313701 38.6208 0 37.8548 0 36.9893V3.16799C0 2.32611 0.325974 1.58331 0.909565 0.971438M9.63066 9.44406H9.62766L9.62827 9.44406C9.62887 9.44406 9.62967 9.44406 9.63066 9.44406Z" fill="#FEFEFE"/>
<path d="M103.795 27.8001C102.865 25.3702 102.398 22.7989 102.398 20.0853C102.398 17.4118 102.865 14.8406 103.795 12.3692C104.768 9.98065 106.114 7.91467 107.856 6.17375C109.557 4.43161 111.683 3.05471 114.223 2.04303C116.735 1.03013 119.519 0.523682 122.597 0.523682C125.716 0.523682 128.479 1.03013 130.909 2.04303C133.492 3.01454 135.638 4.39144 137.339 6.17375C139.039 7.95607 140.366 10.0208 141.338 12.3692C142.309 14.7992 142.796 17.3717 142.796 20.0853C142.796 22.8793 142.309 25.4505 141.338 27.8001C140.637 29.5131 139.783 31.03 138.773 32.3533C138.434 30.5978 137.884 29.7237 137.257 28.4807C133.783 30.347 132.968 30.3239 129.004 30.6708C129.864 30.179 130.634 29.5666 131.315 28.8325C133.38 26.646 134.413 23.7303 134.413 20.0853C134.413 16.4403 133.38 13.5246 131.315 11.3369C129.249 9.11019 126.354 7.99625 122.627 7.99625C118.862 7.99625 115.945 9.11019 113.88 11.3369C111.814 13.6049 110.782 16.5207 110.782 20.0853C110.782 23.6889 111.814 26.6058 113.88 28.8325C115.371 30.4103 117.271 31.4293 119.575 31.8895C116.65 32.7137 114.151 34.2476 112.554 37.3728C110.805 36.5035 109.237 35.3774 107.856 33.9968C106.965 33.1459 106.185 32.1938 105.527 31.1408C104.859 30.0877 104.282 28.9737 103.795 27.8001Z" fill="#FEFEFE"/>
<path fill-rule="evenodd" clip-rule="evenodd" d="M131.028 37.2243C128.648 41.8749 123.982 45.5211 115.987 47.749C121.07 50.1911 126.738 50.168 130.562 47.2584C134.03 44.619 136.044 39.6604 136.01 33.9507C136.006 33.3066 136.003 32.6699 135.955 32.0356C128.105 36.1773 115.04 29.8309 113.791 44.6056L111.875 44.7955C112.396 45.3226 113.03 45.8839 113.596 46.2942C119.838 45.616 126.377 43.253 131.028 37.2243Z" fill="#FEFEFE"/>
<path d="M2.2448 69.8201H6.03601C6.30681 69.8201 6.53723 69.9175 6.72726 70.1123C6.92205 70.3023 7.01944 70.5327 7.01944 70.8035C7.01944 71.0743 6.92205 71.3071 6.72726 71.5019C6.53723 71.6919 6.30681 71.787 6.03601 71.787H2.2448V69.8201ZM2.2448 65.6084H4.63212C4.90292 65.6084 5.13334 65.7058 5.32338 65.9006C5.51816 66.0906 5.61556 66.3211 5.61556 66.5919C5.61556 66.8627 5.51816 67.0955 5.32338 67.2902C5.13334 67.4803 4.90292 67.5753 4.63212 67.5753H2.2448V65.6084ZM6.03601 74.0318C6.92443 74.0318 7.68457 73.7158 8.31644 73.084C8.94831 72.4521 9.26424 71.6919 9.26424 70.8035C9.26424 70.2002 9.10509 69.6396 8.78678 69.1217C8.48272 68.6229 8.07177 68.2357 7.55392 67.9601C7.75821 67.5278 7.86035 67.0717 7.86035 66.5919C7.86035 65.7034 7.54442 64.9433 6.91255 64.3114C6.28068 63.6796 5.52054 63.3636 4.63212 63.3636H1.12596C0.812403 63.3636 0.546353 63.4753 0.327812 63.6986C0.109271 63.9171 0 64.1808 0 64.4896V72.9058C0 73.2194 0.109271 73.4854 0.327812 73.704C0.546353 73.9225 0.812403 74.0318 1.12596 74.0318H6.03601Z" fill="white"/>
<path d="M19.7054 63.556C19.4441 63.385 19.1615 63.328 18.8574 63.385C18.5534 63.4468 18.3158 63.6083 18.1448 63.8696L15.6719 67.5753H13.1848V64.4896C13.1848 64.1808 13.0756 63.9171 12.857 63.6986C12.6385 63.4753 12.3748 63.3636 12.066 63.3636C11.7524 63.3636 11.4864 63.4753 11.2679 63.6986C11.0493 63.9171 10.94 64.1808 10.94 64.4896V72.9058C10.94 73.2194 11.0493 73.4854 11.2679 73.704C11.4864 73.9225 11.7524 74.0318 12.066 74.0318C12.3748 74.0318 12.6385 73.9225 12.857 73.704C13.0756 73.4854 13.1848 73.2194 13.1848 72.9058V69.8201H15.6719L18.1448 73.5329C18.3681 73.8655 18.6792 74.0318 19.0783 74.0318C19.3064 74.0318 19.5154 73.97 19.7054 73.8465C19.962 73.6707 20.1211 73.4308 20.1829 73.1267C20.2399 72.8227 20.1829 72.5424 20.0119 72.2858L17.6245 68.7013L20.0119 65.1096C20.1829 64.853 20.2399 64.5727 20.1829 64.2687C20.1211 63.9646 19.962 63.7271 19.7054 63.556Z" fill="white"/>
<path d="M29.5765 73.4046C29.7143 73.6802 29.9305 73.8679 30.225 73.9676C30.5196 74.0626 30.8046 74.0413 31.0802 73.9035C31.3557 73.7657 31.5434 73.5495 31.6432 73.255C31.7429 72.9604 31.7216 72.6754 31.579 72.3998L27.3745 63.9836C27.2795 63.7936 27.1417 63.6439 26.9612 63.5347C26.7806 63.4206 26.5835 63.3636 26.3697 63.3636C26.1559 63.3636 25.9587 63.4206 25.7782 63.5347C25.5977 63.6439 25.4599 63.7936 25.3649 63.9836L21.1532 72.407C21.0154 72.6825 20.9964 72.9676 21.0962 73.2621C21.1912 73.5567 21.3789 73.7728 21.6592 73.9106C21.816 73.9914 21.9822 74.0318 22.158 74.0318C22.3671 74.0318 22.5618 73.9771 22.7424 73.8679C22.9277 73.7586 23.0678 73.6066 23.1628 73.4118L26.3697 66.9981L29.5765 73.4046Z" fill="white"/>
<path d="M41.5005 71.787C40.65 71.787 39.9232 71.4853 39.3198 70.8819C38.7164 70.2786 38.4147 69.5517 38.4147 68.7013C38.4147 67.8509 38.7164 67.124 39.3198 66.5206C39.9232 65.9125 40.65 65.6084 41.5005 65.6084C42.3509 65.6084 43.0778 65.9125 43.6811 66.5206C44.2845 67.124 44.5862 67.8509 44.5862 68.7013C44.5862 69.5517 44.2845 70.2786 43.6811 70.8819C43.0778 71.4853 42.3509 71.787 41.5005 71.787ZM41.5005 63.3636C40.2367 63.3636 39.1131 63.7651 38.1297 64.568C37.1653 65.3614 36.5524 66.3638 36.2911 67.5753H35.3433V64.4896C35.3433 64.1808 35.234 63.9171 35.0155 63.6986C34.7969 63.4753 34.5333 63.3636 34.2245 63.3636C33.9109 63.3636 33.6449 63.4753 33.4263 63.6986C33.2078 63.9171 33.0985 64.1808 33.0985 64.4896V72.9058C33.0985 73.2194 33.2078 73.4854 33.4263 73.704C33.6449 73.9225 33.9109 74.0318 34.2245 74.0318C34.5333 74.0318 34.7969 73.9225 35.0155 73.704C35.234 73.4854 35.3433 73.2194 35.3433 72.9058V69.8201H36.2911C36.5524 71.0316 37.1653 72.034 38.1297 72.8274C39.1131 73.6303 40.2367 74.0318 41.5005 74.0318C42.9732 74.0318 44.2298 73.5115 45.2703 72.4711C46.3107 71.4259 46.831 70.1693 46.831 68.7013C46.831 67.2285 46.3107 65.9719 45.2703 64.9314C44.2298 63.8862 42.9732 63.3636 41.5005 63.3636Z" fill="white"/>
<path d="M57.2355 64.4896C57.2355 64.1808 57.1263 63.9171 56.9077 63.6986C56.6844 63.4753 56.4184 63.3636 56.1096 63.3636C55.8008 63.3636 55.5371 63.4753 55.3185 63.6986C55.1 63.9171 54.9907 64.1808 54.9907 64.4896V68.9792H52.6034C51.943 68.9792 51.38 68.7464 50.9145 68.2808C50.4489 67.8152 50.2161 67.2522 50.2161 66.5919V64.4896C50.2161 64.1808 50.1068 63.9171 49.8883 63.6986C49.6697 63.4753 49.4061 63.3636 49.0972 63.3636C48.7837 63.3636 48.5176 63.4753 48.2991 63.6986C48.0806 63.9171 47.9713 64.1808 47.9713 64.4896V66.5919C47.9713 67.8699 48.425 68.9626 49.3324 69.87C50.2351 70.7727 51.3254 71.224 52.6034 71.224H54.9907V72.9058C54.9907 73.2194 55.1 73.4854 55.3185 73.704C55.5371 73.9225 55.8008 74.0318 56.1096 74.0318C56.4184 74.0318 56.6844 73.9225 56.9077 73.704C57.1263 73.4854 57.2355 73.2194 57.2355 72.9058V64.4896Z" fill="white"/>
<path d="M63.9639 66.9981L65.3036 69.6776H62.6241L63.9639 66.9981ZM59.2534 73.9106C59.5289 74.0484 59.814 74.0674 60.1086 73.9676C60.4031 73.8726 60.6193 73.685 60.757 73.4046L61.4982 71.9224H66.4225L67.1708 73.4046C67.2658 73.5994 67.4059 73.7538 67.5912 73.8679C67.7717 73.9771 67.9665 74.0318 68.1756 74.0318C68.3513 74.0318 68.5176 73.9914 68.6744 73.9106C68.95 73.7728 69.1376 73.5567 69.2374 73.2621C69.3372 72.9676 69.3158 72.6825 69.1733 72.407L64.9687 63.9836C64.8737 63.7936 64.7359 63.6416 64.5554 63.5275C64.3749 63.4183 64.1777 63.3636 63.9639 63.3636C63.7501 63.3636 63.5529 63.4183 63.3724 63.5275C63.1919 63.6416 63.0541 63.7936 62.9591 63.9836L58.7474 72.407C58.6096 72.6825 58.5906 72.9676 58.6904 73.2621C58.7854 73.5567 58.9731 73.7728 59.2534 73.9106Z" fill="white"/>
<path d="M71.8187 74.0318C71.6857 74.0318 71.5574 74.0104 71.4339 73.9676C71.2106 73.8869 71.0324 73.7491 70.8994 73.5543C70.7616 73.3595 70.6927 73.1433 70.6927 72.9058V64.4896C70.6927 64.1808 70.802 63.9171 71.0205 63.6986C71.2391 63.4753 71.5051 63.3636 71.8187 63.3636C72.1275 63.3636 72.3912 63.4753 72.6097 63.6986C72.8282 63.9171 72.9375 64.1808 72.9375 64.4896V69.8058L77.9687 63.7698C78.1207 63.5893 78.3108 63.4682 78.5388 63.4064C78.7669 63.3446 78.9925 63.3541 79.2158 63.4349C79.4391 63.5157 79.6173 63.6511 79.7503 63.8411C79.8881 64.0359 79.957 64.252 79.957 64.4896V72.9058C79.957 73.2194 79.8477 73.4854 79.6292 73.704C79.4059 73.9225 79.1398 74.0318 78.831 74.0318C78.5222 74.0318 78.2585 73.9225 78.04 73.704C77.8214 73.4854 77.7122 73.2194 77.7122 72.9058V67.5896L72.681 73.6256C72.4529 73.8964 72.1655 74.0318 71.8187 74.0318ZM73.921 62.2448C73.6121 62.2448 73.3485 62.1355 73.1299 61.917C72.9066 61.6984 72.795 61.4324 72.795 61.1188C72.795 60.81 72.9066 60.5464 73.1299 60.3278C73.3485 60.1093 73.6121 60 73.921 60H76.7287C77.0375 60 77.3012 60.1093 77.5198 60.3278C77.7383 60.5464 77.8476 60.81 77.8476 61.1188C77.8476 61.4324 77.7383 61.6984 77.5198 61.917C77.3012 62.1355 77.0375 62.2448 76.7287 62.2448H73.921Z" fill="white"/>
<path d="M88.9324 71.787C88.6188 71.787 88.3528 71.8962 88.1342 72.1148C87.9157 72.3333 87.8064 72.597 87.8064 72.9058C87.8064 73.2194 87.9157 73.4854 88.1342 73.704C88.3528 73.9225 88.6188 74.0318 88.9324 74.0318H93.8424C94.7308 74.0318 95.491 73.7158 96.1228 73.084C96.7547 72.4521 97.0706 71.6919 97.0706 70.8035C97.0706 69.8344 96.7025 69.0267 95.9661 68.3806C96.3271 67.839 96.5077 67.2427 96.5077 66.5919C96.5077 65.7034 96.1917 64.9433 95.5599 64.3114C94.928 63.6796 94.1679 63.3636 93.2794 63.3636H88.9324C88.6188 63.3636 88.3528 63.4753 88.1342 63.6986C87.9157 63.9171 87.8064 64.1808 87.8064 64.4896C87.8064 64.7984 87.9157 65.0621 88.1342 65.2806C88.3528 65.4992 88.6188 65.6084 88.9324 65.6084H93.2794C93.5502 65.6084 93.7807 65.7058 93.9707 65.9006C94.1655 66.0906 94.2629 66.3211 94.2629 66.5919C94.2629 66.8627 94.1655 67.0955 93.9707 67.2902C93.7807 67.4803 93.5502 67.5753 93.2794 67.5753H90.3291C90.0203 67.5753 89.7566 67.6846 89.5381 67.9031C89.3196 68.1217 89.2103 68.3877 89.2103 68.7013C89.2103 69.0101 89.3196 69.2737 89.5381 69.4923C89.7566 69.7108 90.0203 69.8201 90.3291 69.8201H93.8424C94.1132 69.8201 94.3436 69.9175 94.5337 70.1123C94.7285 70.3023 94.8259 70.5327 94.8259 70.8035C94.8259 71.0743 94.7285 71.3071 94.5337 71.5019C94.3436 71.6919 94.1132 71.787 93.8424 71.787H88.9324Z" fill="white"/>
<path d="M103.941 67.0052L106.335 71.787H101.553L103.941 67.0052ZM107.725 74.3097C107.725 74.6233 107.836 74.8893 108.06 75.1078C108.278 75.3264 108.542 75.4357 108.851 75.4357C109.16 75.4357 109.423 75.3264 109.642 75.1078C109.865 74.8893 109.977 74.6233 109.977 74.3097V72.9129C109.977 72.5994 109.865 72.3333 109.642 72.1148C109.423 71.8962 109.16 71.787 108.851 71.787H108.844L104.945 63.9979C104.85 63.8078 104.713 63.6558 104.532 63.5418C104.352 63.4325 104.154 63.3779 103.941 63.3779C103.727 63.3779 103.53 63.4325 103.349 63.5418C103.169 63.6558 103.031 63.8078 102.936 63.9979L99.0377 71.787H99.0306C98.7171 71.787 98.451 71.8962 98.2325 72.1148C98.0139 72.3333 97.9047 72.5994 97.9047 72.9129V74.3097C97.9047 74.6233 98.0139 74.8893 98.2325 75.1078C98.451 75.3264 98.7171 75.4357 99.0306 75.4357C99.3394 75.4357 99.6031 75.3264 99.8216 75.1078C100.04 74.8893 100.149 74.6233 100.149 74.3097V74.0318H107.725V74.3097Z" fill="white"/>
<path d="M119.237 68.7013C119.237 69.5517 118.936 70.2786 118.332 70.8819C117.724 71.4853 116.995 71.787 116.144 71.787C115.294 71.787 114.567 71.4853 113.964 70.8819C113.36 70.2786 113.059 69.5517 113.059 68.7013C113.059 67.8509 113.36 67.124 113.964 66.5206C114.567 65.9125 115.294 65.6084 116.144 65.6084C116.995 65.6084 117.724 65.9125 118.332 66.5206C118.936 67.124 119.237 67.8509 119.237 68.7013ZM110.814 68.7013C110.814 70.1693 111.334 71.4259 112.375 72.4711C113.42 73.5115 114.676 74.0318 116.144 74.0318C117.617 74.0318 118.874 73.5115 119.914 72.4711C120.959 71.4259 121.482 70.1693 121.482 68.7013C121.482 67.2285 120.959 65.9719 119.914 64.9314C118.874 63.8862 117.617 63.3636 116.144 63.3636C114.676 63.3636 113.42 63.8862 112.375 64.9314C111.334 65.9719 110.814 67.2285 110.814 68.7013Z" fill="white"/>
<path d="M130.185 67.2974C130.185 67.7582 130.019 68.1549 129.687 68.4875C129.359 68.8153 128.962 68.9792 128.496 68.9792H125.411V65.6084H128.496C128.962 65.6084 129.359 65.7747 129.687 66.1073C130.019 66.4351 130.185 66.8318 130.185 67.2974ZM124.292 74.0318C124.601 74.0318 124.864 73.9225 125.083 73.704C125.301 73.4854 125.411 73.2194 125.411 72.9058V71.224H128.496C129.58 71.224 130.506 70.8392 131.276 70.0695C132.045 69.3046 132.43 68.3806 132.43 67.2974C132.43 66.2142 132.045 65.2877 131.276 64.5181C130.506 63.7485 129.58 63.3636 128.496 63.3636H124.292C123.978 63.3636 123.712 63.4753 123.494 63.6986C123.275 63.9171 123.166 64.1808 123.166 64.4896V72.9058C123.166 73.2194 123.275 73.4854 123.494 73.704C123.712 73.9225 123.978 74.0318 124.292 74.0318Z" fill="white"/>
<path d="M141.966 68.7013C141.966 69.5517 141.665 70.2786 141.061 70.8819C140.453 71.4853 139.724 71.787 138.874 71.787C138.023 71.787 137.296 71.4853 136.693 70.8819C136.09 70.2786 135.788 69.5517 135.788 68.7013C135.788 67.8509 136.09 67.124 136.693 66.5206C137.296 65.9125 138.023 65.6084 138.874 65.6084C139.724 65.6084 140.453 65.9125 141.061 66.5206C141.665 67.124 141.966 67.8509 141.966 68.7013ZM133.543 68.7013C133.543 70.1693 134.063 71.4259 135.104 72.4711C136.149 73.5115 137.406 74.0318 138.874 74.0318C140.346 74.0318 141.603 73.5115 142.643 72.4711C143.689 71.4259 144.211 70.1693 144.211 68.7013C144.211 67.2285 143.689 65.9719 142.643 64.9314C141.603 63.8862 140.346 63.3636 138.874 63.3636C137.406 63.3636 136.149 63.8862 135.104 64.9314C134.063 65.9719 133.543 67.2285 133.543 68.7013Z" fill="white"/>
<path d="M148.14 69.8201H151.931C152.202 69.8201 152.432 69.9175 152.622 70.1123C152.817 70.3023 152.915 70.5327 152.915 70.8035C152.915 71.0743 152.817 71.3071 152.622 71.5019C152.432 71.6919 152.202 71.787 151.931 71.787H148.14V69.8201ZM148.14 65.6084H150.527C150.798 65.6084 151.028 65.7058 151.218 65.9006C151.413 66.0906 151.511 66.3211 151.511 66.5919C151.511 66.8627 151.413 67.0955 151.218 67.2902C151.028 67.4803 150.798 67.5753 150.527 67.5753H148.14V65.6084ZM151.931 74.0318C152.82 74.0318 153.58 73.7158 154.212 73.084C154.843 72.4521 155.159 71.6919 155.159 70.8035C155.159 70.2002 155 69.6396 154.682 69.1217C154.378 68.6229 153.967 68.2357 153.449 67.9601C153.653 67.5278 153.755 67.0717 153.755 66.5919C153.755 65.7034 153.44 64.9433 152.808 64.3114C152.176 63.6796 151.416 63.3636 150.527 63.3636H147.021C146.708 63.3636 146.441 63.4753 146.223 63.6986C146.004 63.9171 145.895 64.1808 145.895 64.4896V72.9058C145.895 73.2194 146.004 73.4854 146.223 73.704C146.441 73.9225 146.708 74.0318 147.021 74.0318H151.931Z" fill="white"/>
<path d="M159.08 71.787V68.4162H162.166C162.631 68.4162 163.028 68.5825 163.356 68.9151C163.688 69.2429 163.855 69.6396 163.855 70.1052C163.855 70.566 163.688 70.9627 163.356 71.2952C163.028 71.6231 162.631 71.787 162.166 71.787H159.08ZM159.08 66.1714V64.4896C159.08 64.1808 158.971 63.9171 158.752 63.6986C158.534 63.4753 158.27 63.3636 157.961 63.3636C157.648 63.3636 157.381 63.4753 157.163 63.6986C156.944 63.9171 156.835 64.1808 156.835 64.4896V72.9058C156.835 73.2194 156.944 73.4854 157.163 73.704C157.381 73.9225 157.648 74.0318 157.961 74.0318H162.166C163.249 74.0318 164.175 73.6469 164.945 72.8773C165.715 72.1124 166.099 71.1884 166.099 70.1052C166.099 69.0219 165.715 68.0955 164.945 67.3259C164.175 66.5562 163.249 66.1714 162.166 66.1714H159.08Z" fill="white"/>
<path d="M175.913 74.0318C176.222 74.0318 176.488 73.9225 176.712 73.704C176.93 73.4854 177.039 73.2194 177.039 72.9058C177.039 72.597 176.93 72.3333 176.712 72.1148C176.488 71.8962 176.222 71.787 175.913 71.787H170.02V69.8201H174.51C174.818 69.8201 175.084 69.7108 175.308 69.4923C175.526 69.2737 175.636 69.0101 175.636 68.7013C175.636 68.3877 175.526 68.1217 175.308 67.9031C175.084 67.6846 174.818 67.5753 174.51 67.5753H170.02V65.6084H175.913C176.222 65.6084 176.488 65.4992 176.712 65.2806C176.93 65.0621 177.039 64.7984 177.039 64.4896C177.039 64.1808 176.93 63.9171 176.712 63.6986C176.488 63.4753 176.222 63.3636 175.913 63.3636H168.901C168.588 63.3636 168.322 63.4753 168.103 63.6986C167.884 63.9171 167.775 64.1808 167.775 64.4896V72.9058C167.775 73.2194 167.884 73.4854 168.103 73.704C168.322 73.9225 168.588 74.0318 168.901 74.0318H175.913Z" fill="white"/>
<path d="M179.841 63.3708C179.528 63.3708 179.262 63.48 179.043 63.6986C178.824 63.9171 178.715 64.1808 178.715 64.4896V70.1052C178.715 70.414 178.824 70.6776 179.043 70.8962C179.262 71.1147 179.528 71.224 179.841 71.224C180.15 71.224 180.414 71.1147 180.632 70.8962C180.851 70.6776 180.96 70.414 180.96 70.1052V64.4896C180.96 64.1808 180.851 63.9171 180.632 63.6986C180.414 63.48 180.15 63.3708 179.841 63.3708ZM180.96 72.9129C180.96 72.5994 180.851 72.3333 180.632 72.1148C180.414 71.8962 180.15 71.787 179.841 71.787C179.528 71.787 179.262 71.8962 179.043 72.1148C178.824 72.3333 178.715 72.5994 178.715 72.9129C178.715 73.2217 178.824 73.4854 179.043 73.704C179.262 73.9225 179.528 74.0318 179.841 74.0318C180.15 74.0318 180.414 73.9225 180.632 73.704C180.851 73.4854 180.96 73.2217 180.96 72.9129Z" fill="white"/>
</svg>
