<svg width="50" height="50" viewBox="0 0 50 50" fill="none" xmlns="http://www.w3.org/2000/svg">
<path d="M37.8906 14.4532H12.1094C11.9022 14.4532 11.7035 14.5355 11.5569 14.682C11.4104 14.8286 11.3281 15.0273 11.3281 15.2345C11.3281 15.4417 11.4104 15.6404 11.5569 15.7869C11.7035 15.9334 11.9022 16.0157 12.1094 16.0157H37.8906C38.0978 16.0157 38.2965 15.9334 38.4431 15.7869C38.5896 15.6404 38.6719 15.4417 38.6719 15.2345C38.6719 15.0273 38.5896 14.8286 38.4431 14.682C38.2965 14.5355 38.0978 14.4532 37.8906 14.4532ZM38.6719 19.1408C38.6719 18.9336 38.5896 18.7349 38.443 18.5883C38.2965 18.4418 38.0978 18.3595 37.8906 18.3595H12.1094C11.9022 18.3595 11.7035 18.4418 11.5569 18.5883C11.4104 18.7348 11.3281 18.9336 11.3281 19.1408C11.3281 19.348 11.4104 19.5467 11.5569 19.6932C11.7035 19.8397 11.9022 19.922 12.1094 19.922H37.8906C38.0978 19.922 38.2965 19.8397 38.443 19.6932C38.5896 19.5467 38.6719 19.348 38.6719 19.1408ZM23.8281 23.047C23.8281 22.8398 23.7458 22.6411 23.5993 22.4946C23.4528 22.3481 23.2541 22.2658 23.0469 22.2658H12.1094C11.9022 22.2658 11.7035 22.3481 11.5569 22.4946C11.4104 22.6411 11.3281 22.8398 11.3281 23.047C11.3281 23.2542 11.4104 23.453 11.5569 23.5995C11.7035 23.746 11.9022 23.8283 12.1094 23.8283H23.0469C23.2541 23.8283 23.4528 23.746 23.5993 23.5995C23.7458 23.4529 23.8281 23.2542 23.8281 23.047ZM11.3281 30.469C11.3281 31.087 11.5114 31.6912 11.8548 32.2051C12.1982 32.719 12.6862 33.1196 13.2573 33.3561C13.8283 33.5926 14.4566 33.6545 15.0628 33.5339C15.669 33.4133 16.2258 33.1157 16.6628 32.6787C17.0999 32.2416 17.3975 31.6848 17.5181 31.0786C17.6387 30.4724 17.5768 29.8441 17.3402 29.2731C17.1037 28.702 16.7032 28.214 16.1893 27.8706C15.6754 27.5272 15.0712 27.344 14.4531 27.344C13.6246 27.3449 12.8303 27.6744 12.2444 28.2603C11.6586 28.8462 11.3291 29.6405 11.3281 30.469ZM16.0156 30.469C16.0156 30.778 15.924 31.0801 15.7523 31.3371C15.5806 31.594 15.3366 31.7943 15.0511 31.9125C14.7656 32.0308 14.4514 32.0618 14.1483 32.0015C13.8452 31.9412 13.5668 31.7924 13.3483 31.5738C13.1298 31.3553 12.9809 31.0769 12.9206 30.7738C12.8604 30.4707 12.8913 30.1566 13.0096 29.871C13.1278 29.5855 13.3281 29.3415 13.585 29.1698C13.842 28.9981 14.1441 28.9065 14.4531 28.9065C14.8675 28.9065 15.265 29.0711 15.558 29.3641C15.851 29.6572 16.0156 30.0546 16.0156 30.469Z" fill="url(#paint0_linear_221_5934)"/>
<path d="M47.6562 3.90625H2.34375C1.72235 3.90693 1.12661 4.15408 0.687214 4.59348C0.247823 5.03287 0.000676205 5.62862 0 6.25002L0 38.2816C0.000676205 38.903 0.247823 39.4987 0.687214 39.9381C1.12661 40.3775 1.72235 40.6246 2.34375 40.6253H26.0148L27.1302 39.0628H2.34375C2.13663 39.0626 1.93808 38.9802 1.79162 38.8337C1.64517 38.6873 1.56277 38.4887 1.5625 38.2816V6.25002C1.56277 6.0429 1.64517 5.84434 1.79162 5.69789C1.93808 5.55144 2.13663 5.46904 2.34375 5.46877H47.6562C47.8634 5.46904 48.0619 5.55144 48.2084 5.69789C48.3548 5.84434 48.4372 6.0429 48.4375 6.25002V38.2816C48.4372 38.4887 48.3548 38.6872 48.2084 38.8337C48.0619 38.9801 47.8634 39.0625 47.6562 39.0628H42.4013L43.5168 40.6253H47.6562C48.2776 40.6246 48.8734 40.3775 49.3128 39.9381C49.7522 39.4987 49.9993 38.9029 50 38.2815V6.25002C49.9993 5.62862 49.7522 5.03287 49.3128 4.59348C48.8734 4.15408 48.2776 3.90693 47.6562 3.90625Z" fill="url(#paint1_linear_221_5934)"/>
<path d="M32.3858 41.9291L31.0213 43.8164L30.8665 43.0523C30.8328 42.7883 30.6993 42.5472 30.4934 42.3786C30.3802 42.2861 30.2493 42.2177 30.1087 42.1776C29.9681 42.1375 29.8208 42.1266 29.6759 42.1455L28.6985 42.2439L30.1864 40.1596C29.659 40.0531 29.1612 39.8329 28.7277 39.5142L26.7626 42.2668C26.6419 42.431 26.5727 42.6275 26.5639 42.8311C26.5552 43.0348 26.6072 43.2365 26.7134 43.4105C26.8212 43.5862 26.9777 43.7269 27.164 43.8153C27.3502 43.9038 27.5581 43.9362 27.7624 43.9087L29.4119 43.7423L29.7026 45.1763C29.7267 45.3779 29.8096 45.5681 29.941 45.7229C30.0724 45.8778 30.2465 45.9906 30.4415 46.0472C30.5432 46.078 30.6488 46.0937 30.7551 46.0938C30.9231 46.0938 31.0888 46.0543 31.2388 45.9785C31.3888 45.9027 31.5188 45.7927 31.6184 45.6573L34.4295 41.7689C34.0196 41.9352 33.5823 42.0238 33.14 42.0303C32.8853 42.0295 32.6317 41.9955 32.3858 41.9291ZM40.8033 39.5141C40.3697 39.8328 39.8719 40.053 39.3444 40.1595L40.8324 42.2439L39.855 42.1455C39.7101 42.1266 39.5628 42.1375 39.4222 42.1776C39.2816 42.2176 39.1507 42.286 39.0375 42.3786C38.8316 42.5472 38.6981 42.7883 38.6645 43.0522L38.5096 43.816L37.1425 41.9252C36.4624 42.0937 35.746 42.0381 35.1 41.7668L37.9164 45.6627C38.0158 45.7968 38.1454 45.9057 38.2946 45.9806C38.4438 46.0554 38.6085 46.0942 38.7755 46.0938C38.8818 46.0937 38.9876 46.078 39.0894 46.0472C39.2845 45.9906 39.4585 45.8778 39.5899 45.7229C39.7213 45.5681 39.8042 45.378 39.8283 45.1763L40.119 43.7424L41.7685 43.9087C41.9728 43.9364 42.1808 43.904 42.3671 43.8156C42.5534 43.7271 42.7099 43.5863 42.8175 43.4105C42.9233 43.2379 42.9756 43.0379 42.9678 42.8356C42.96 42.6334 42.8925 42.438 42.7737 42.2741L40.8033 39.5141ZM36.8182 40.3995C37.3307 40.1763 37.7355 39.7613 37.9458 39.2432C38.0176 39.0939 38.1059 38.953 38.209 38.8232C38.3675 38.7623 38.5325 38.7198 38.7007 38.6966C38.9791 38.7037 39.255 38.6432 39.5048 38.5202C39.7546 38.3972 39.9708 38.2155 40.1349 37.9905C40.299 37.7656 40.4061 37.5042 40.447 37.2288C40.4879 36.9534 40.4613 36.6722 40.3696 36.4093C40.3394 36.24 40.3289 36.0679 40.3384 35.8962C40.4281 35.7613 40.5325 35.6367 40.6496 35.5246C41.0813 35.1618 41.353 34.6437 41.4061 34.0823C41.353 33.5209 41.0813 33.0028 40.6496 32.64C40.5334 32.5286 40.4294 32.405 40.3395 32.2714C40.3289 32.0988 40.339 31.9255 40.3696 31.7553C40.5037 31.2196 40.4203 30.6527 40.1377 30.1783C39.7714 29.761 39.2547 29.5056 38.7007 29.468C38.5334 29.4448 38.3692 29.4028 38.2113 29.3429C38.107 29.2128 38.0178 29.0712 37.9454 28.921C37.7353 28.4029 37.3305 27.9879 36.8178 27.7651C36.2841 27.6453 35.7247 27.7408 35.261 28.031C35.1045 28.1155 34.9381 28.18 34.7655 28.2229C34.5929 28.18 34.4264 28.1155 34.2699 28.031C33.8061 27.741 33.2466 27.6455 32.7128 27.7651C32.2002 27.9883 31.7954 28.4033 31.5852 28.9214C31.5134 29.0707 31.4251 29.2116 31.3219 29.3414C31.1635 29.4023 30.9985 29.4448 30.8302 29.468C30.2762 29.5054 29.7596 29.7607 29.3932 30.1779C29.1106 30.6525 29.0273 31.2195 29.1613 31.7553C29.1916 31.9246 29.2021 32.0967 29.1926 32.2684C29.1028 32.4033 28.9984 32.5279 28.8813 32.64C28.4496 33.0028 28.1779 33.5209 28.1248 34.0823C28.1779 34.6437 28.4496 35.1618 28.8813 35.5247C28.9976 35.636 29.1015 35.7596 29.1914 35.8932C29.202 36.0658 29.1919 36.2391 29.1613 36.4093C29.0697 36.6722 29.0432 36.9534 29.0841 37.2288C29.125 37.5042 29.2321 37.7655 29.3962 37.9904C29.5603 38.2153 29.7765 38.397 30.0263 38.52C30.276 38.643 30.5519 38.7036 30.8302 38.6966C30.9975 38.7198 31.1617 38.7618 31.3197 38.8217C31.424 38.9518 31.5132 39.0934 31.5855 39.2436C31.7956 39.7617 32.2005 40.1767 32.7132 40.3995C32.8521 40.4446 32.9974 40.4674 33.1435 40.467C33.539 40.4406 33.9237 40.3267 34.2699 40.1336C34.4264 40.0491 34.5929 39.9846 34.7655 39.9417C34.9381 39.9846 35.1045 40.0491 35.261 40.1336C35.7249 40.4236 36.2843 40.5191 36.8182 40.3995ZM33.6031 38.7206C33.4716 38.7867 33.3359 38.8442 33.1969 38.8927C33.1081 38.7665 33.0283 38.6341 32.9581 38.4967C32.8133 38.1202 32.5626 37.7937 32.2363 37.5567C31.9099 37.3197 31.5218 37.1823 31.119 37.1612C30.9681 37.1366 30.8191 37.1017 30.6731 37.0566C30.6755 36.9059 30.6882 36.7555 30.7112 36.6065C30.7898 36.2104 30.7783 35.8017 30.6777 35.4106C30.5321 35.0442 30.3054 34.7155 30.0147 34.4493C29.9002 34.3357 29.7952 34.2129 29.7007 34.0823C29.7952 33.9516 29.9002 33.8289 30.0147 33.7153C30.3054 33.449 30.5321 33.1204 30.6777 32.754C30.7783 32.3628 30.7898 31.9539 30.7112 31.5577C30.6884 31.4087 30.6756 31.2583 30.6731 31.1075C30.8192 31.0628 30.9682 31.028 31.119 31.0034C31.5219 30.9826 31.9101 30.8454 32.2366 30.6083C32.563 30.3712 32.8136 30.0445 32.9581 29.6678C33.0282 29.5304 33.108 29.3981 33.1969 29.2719C33.3359 29.3203 33.4716 29.3778 33.6031 29.4439C33.9498 29.6668 34.3533 29.7853 34.7655 29.7853C35.1776 29.7853 35.5811 29.6668 35.9278 29.4439C36.0593 29.3778 36.195 29.3203 36.3341 29.2719C36.4229 29.3981 36.5027 29.5304 36.5729 29.6678C36.7176 30.0443 36.9683 30.3709 37.2947 30.6079C37.6211 30.8449 38.0091 30.9823 38.4119 31.0034C38.5628 31.0279 38.7118 31.0629 38.8579 31.1079C38.8555 31.2587 38.8427 31.4091 38.8197 31.5581C38.7411 31.9542 38.7526 32.3629 38.8533 32.754C38.9988 33.1204 39.2255 33.449 39.5163 33.7153C39.6307 33.8289 39.7357 33.9516 39.8302 34.0823C39.7357 34.2129 39.6307 34.3357 39.5163 34.4493C39.2255 34.7155 38.9988 35.0442 38.8533 35.4106C38.7526 35.8018 38.7411 36.2106 38.8197 36.6069C38.8425 36.7559 38.8553 36.9063 38.8579 37.057C38.7117 37.1018 38.5627 37.1366 38.4119 37.1612C38.009 37.1819 37.6208 37.3192 37.2944 37.5563C36.9679 37.7933 36.7173 38.12 36.5729 38.4967C36.5027 38.6342 36.4229 38.7665 36.3341 38.8927C36.195 38.8442 36.0593 38.7867 35.9278 38.7206C35.5811 38.4977 35.1776 38.3792 34.7655 38.3792C34.3533 38.3792 33.9498 38.4977 33.6031 38.7206Z" fill="url(#paint2_linear_221_5934)"/>
<path d="M37.5 34.0823C37.5 33.5415 37.3396 33.0128 37.0392 32.5632C36.7387 32.1135 36.3117 31.763 35.812 31.5561C35.3124 31.3491 34.7626 31.295 34.2322 31.4005C33.7017 31.506 33.2145 31.7664 32.8321 32.1488C32.4497 32.5313 32.1893 33.0185 32.0838 33.5489C31.9783 34.0793 32.0324 34.6291 32.2394 35.1287C32.4464 35.6284 32.7968 36.0554 33.2465 36.3559C33.6962 36.6563 34.2248 36.8167 34.7656 36.8167C35.4906 36.8158 36.1856 36.5275 36.6982 36.0148C37.2108 35.5022 37.4991 34.8072 37.5 34.0823ZM34.7656 35.2542C34.5339 35.2542 34.3073 35.1855 34.1146 35.0567C33.9219 34.9279 33.7717 34.7449 33.683 34.5308C33.5943 34.3166 33.5711 34.081 33.6163 33.8537C33.6615 33.6264 33.7731 33.4176 33.937 33.2537C34.1009 33.0898 34.3097 32.9782 34.537 32.9329C34.7643 32.8877 34.9999 32.9109 35.2141 32.9996C35.4282 33.0883 35.6112 33.2385 35.74 33.4312C35.8688 33.624 35.9375 33.8505 35.9375 34.0823C35.9372 34.393 35.8136 34.6909 35.5939 34.9106C35.3742 35.1303 35.0763 35.2539 34.7656 35.2542V35.2542Z" fill="url(#paint3_linear_221_5934)"/>
<path d="M45.3125 37.5003C45.7268 37.4999 46.124 37.3351 46.4169 37.0422C46.7098 36.7493 46.8746 36.3521 46.875 35.9378V8.5938C46.8746 8.17952 46.7098 7.78233 46.4169 7.4894C46.124 7.19646 45.7268 7.03171 45.3125 7.0313H4.6875C4.27323 7.03171 3.87604 7.19646 3.5831 7.4894C3.29017 7.78233 3.12541 8.17952 3.125 8.5938V35.9378C3.12541 36.3521 3.29017 36.7493 3.5831 37.0422C3.87604 37.3351 4.27323 37.4999 4.6875 37.5003H27.581C27.5395 37.1435 27.5409 36.783 27.5852 36.4265C27.4431 36.2717 27.3104 36.1085 27.1879 35.9378H4.6875V14.6791L10.7086 8.65788C10.7272 8.63748 10.7447 8.61608 10.761 8.5938H39.239C39.2553 8.61608 39.2728 8.63748 39.2914 8.65788L45.3128 14.6793L45.3136 35.9378H42.3432C42.2207 36.1085 42.0881 36.2717 41.946 36.4264C41.9903 36.7829 41.9918 37.1435 41.9502 37.5003L45.3125 37.5003ZM4.6875 12.4696V8.59378H8.56323L4.6875 12.4696ZM41.4368 8.59378H45.3125L45.3127 12.4697L41.4368 8.59378Z" fill="url(#paint4_linear_221_5934)"/>
<defs>
<linearGradient id="paint0_linear_221_5934" x1="11.3281" y1="24.0235" x2="38.6719" y2="24.0235" gradientUnits="userSpaceOnUse">
<stop stop-color="#006B54"/>
<stop offset="1" stop-color="#18AD89"/>
</linearGradient>
<linearGradient id="paint1_linear_221_5934" x1="1.16416e-08" y1="22.2657" x2="50" y2="22.2657" gradientUnits="userSpaceOnUse">
<stop stop-color="#006B54"/>
<stop offset="1" stop-color="#18AD89"/>
</linearGradient>
<linearGradient id="paint2_linear_221_5934" x1="26.563" y1="36.9041" x2="42.9686" y2="36.9041" gradientUnits="userSpaceOnUse">
<stop stop-color="#006B54"/>
<stop offset="1" stop-color="#18AD89"/>
</linearGradient>
<linearGradient id="paint3_linear_221_5934" x1="32.0313" y1="34.0823" x2="37.5" y2="34.0823" gradientUnits="userSpaceOnUse">
<stop stop-color="#006B54"/>
<stop offset="1" stop-color="#18AD89"/>
</linearGradient>
<linearGradient id="paint4_linear_221_5934" x1="3.125" y1="22.2657" x2="46.875" y2="22.2657" gradientUnits="userSpaceOnUse">
<stop stop-color="#006B54"/>
<stop offset="1" stop-color="#18AD89"/>
</linearGradient>
</defs>
</svg>
