<svg width="18" height="18" viewBox="0 0 18 18" fill="none" xmlns="http://www.w3.org/2000/svg">
    <circle fill="url(#frame)" stroke="#BD8A29" stroke-miterlimit="10" cx="61.376" cy="59.876" r="57.875"/>
<path d="M12.8892 17.3334H5.11144C3.9327 17.3334 2.80223 16.8652 1.96874 16.0317C1.13524 15.1982 0.666992 14.0677 0.666992 12.889V5.11119C0.666992 3.93245 1.13524 2.80199 1.96874 1.9685C2.80223 1.135 3.9327 0.666748 5.11144 0.666748H12.8892C14.068 0.666748 15.1984 1.135 16.0319 1.9685C16.8654 2.80199 17.3337 3.93245 17.3337 5.11119V12.889C17.3337 14.0677 16.8654 15.1982 16.0319 16.0317C15.1984 16.8652 14.068 17.3334 12.8892 17.3334Z" stroke="white" stroke-miterlimit="10"/>
<path d="M9.00022 12.8889C11.148 12.8889 12.8891 11.1477 12.8891 8.99997C12.8891 6.8522 11.148 5.11108 9.00022 5.11108C6.85244 5.11108 5.11133 6.8522 5.11133 8.99997C5.11133 11.1477 6.85244 12.8889 9.00022 12.8889Z" stroke="white" stroke-miterlimit="10"/>
<path d="M14.0004 4.55569C14.3072 4.55569 14.5559 4.30696 14.5559 4.00014C14.5559 3.69331 14.3072 3.44458 14.0004 3.44458C13.6936 3.44458 13.4448 3.69331 13.4448 4.00014C13.4448 4.30696 13.6936 4.55569 14.0004 4.55569Z" stroke="white" stroke-miterlimit="10"/>
</svg>
