<svg width="18" height="18" viewBox="0 0 18 18" fill="none" xmlns="http://www.w3.org/2000/svg">
<path d="M9.00034 8.62959C11.2504 8.62959 13.0744 6.80557 13.0744 4.55552C13.0744 2.30547 11.2504 0.481445 9.00034 0.481445C6.75029 0.481445 4.92627 2.30547 4.92627 4.55552C4.92627 6.80557 6.75029 8.62959 9.00034 8.62959Z" stroke="white" stroke-miterlimit="10"/>
<path d="M9.00029 6.40732C10.023 6.40732 10.8521 5.57821 10.8521 4.55547C10.8521 3.53272 10.023 2.70361 9.00029 2.70361C7.97754 2.70361 7.14844 3.53272 7.14844 4.55547C7.14844 5.57821 7.97754 6.40732 9.00029 6.40732Z" stroke="white" stroke-miterlimit="10"/>
<path d="M12.793 9.11843C11.6969 9.93775 10.3651 10.3805 8.99668 10.3805C7.62821 10.3805 6.29647 9.93775 5.20038 9.11843C5.04047 8.99458 4.84923 8.9177 4.64809 8.89643C4.44695 8.87517 4.24386 8.91034 4.06159 8.99802C3.87931 9.08569 3.72506 9.2224 3.61613 9.39282C3.50719 9.56324 3.44787 9.76064 3.44482 9.96288C3.447 10.2303 3.51588 10.493 3.64522 10.7272C3.77457 10.9613 3.96029 11.1594 4.18556 11.3036C4.87282 11.7594 5.62093 12.116 6.40779 12.3629C6.77703 12.4757 7.15311 12.5647 7.53371 12.6295L4.55594 15.4888C4.3359 15.7167 4.21541 16.0227 4.22097 16.3394C4.22653 16.6561 4.35768 16.9577 4.58556 17.1777C4.81345 17.3977 5.11942 17.5182 5.43615 17.5127C5.75287 17.5071 6.05442 17.376 6.27445 17.1481L9.00038 14.3407L11.7263 17.1481C11.9463 17.376 12.2479 17.5071 12.5646 17.5127C12.8813 17.5182 13.1873 17.3977 13.4152 17.1777C13.6431 16.9577 13.7742 16.6561 13.7798 16.3394C13.7853 16.0227 13.6649 15.7167 13.4448 15.4888L10.4819 12.6221C10.8625 12.5573 11.2385 12.4683 11.6078 12.3555C12.3946 12.1086 13.1428 11.752 13.83 11.2962C14.0553 11.152 14.241 10.9539 14.3704 10.7197C14.4997 10.4856 14.5686 10.2229 14.5708 9.95547C14.5696 9.74994 14.5103 9.54894 14.3997 9.37571C14.289 9.20248 14.1317 9.06409 13.9457 8.97654C13.7598 8.88899 13.5528 8.85585 13.3488 8.88096C13.1449 8.90607 12.9521 8.9884 12.793 9.11843V9.11843Z" stroke="white" stroke-linecap="round" stroke-linejoin="round"/>
</svg>
