<svg width="24" height="24" viewBox="0 0 24 24" fill="none" xmlns="http://www.w3.org/2000/svg">
<path d="M11.7763 16.8154H13.0222C13.0222 16.8154 13.3985 16.7765 13.5902 16.5834C13.7666 16.4056 13.761 16.0723 13.761 16.0723C13.761 16.0723 13.736 14.5084 14.5124 14.2793C15.2763 14.0529 16.2583 15.789 17.2985 16.457C18.086 16.9626 18.6833 16.8515 18.6833 16.8515L21.4652 16.8154C21.4652 16.8154 22.9208 16.732 22.2305 15.6612C22.1735 15.5737 21.8291 14.8695 20.1624 13.4237C18.418 11.9098 18.6513 12.1543 20.7527 9.53621C22.0319 7.94176 22.5444 6.96815 22.3847 6.55148C22.2319 6.15426 21.2916 6.25982 21.2916 6.25982L18.1597 6.27787C18.1597 6.27787 17.9277 6.24871 17.7555 6.34454C17.6382 6.42397 17.543 6.532 17.4791 6.65843C17.4791 6.65843 16.9833 7.89176 16.3222 8.94176C14.9277 11.1556 14.3694 11.2737 14.1416 11.1362C13.6097 10.8154 13.7416 9.84732 13.7416 9.16121C13.7416 7.01537 14.0902 6.12093 13.0638 5.88898C12.7235 5.81121 12.4722 5.76121 11.6013 5.75287C10.4833 5.74176 9.53743 5.75565 9.00271 6.00148C8.64577 6.16398 8.37077 6.52787 8.53882 6.54871C8.74577 6.57509 9.21382 6.66676 9.46243 6.98343C9.78327 7.39176 9.77216 8.30843 9.77216 8.30843C9.77216 8.30843 9.95688 10.8348 9.3416 11.1487C8.91938 11.364 8.34021 10.9251 7.09716 8.91537C6.45966 7.88621 5.9791 6.74871 5.9791 6.74871C5.9791 6.74871 5.88604 6.53621 5.72077 6.42232C5.51938 6.28482 5.23882 6.24037 5.23882 6.24037L2.26243 6.25982C2.26243 6.25982 1.81521 6.27093 1.65132 6.45287C1.50549 6.61398 1.64021 6.94871 1.64021 6.94871C1.64021 6.94871 3.97077 12.0459 6.60966 14.6154C9.0291 16.9695 11.7763 16.8154 11.7763 16.8154V16.8154Z" stroke="white" stroke-miterlimit="10"/>
</svg>
